[prun] Master compute host = n16-23
[prun] Resource manager = slurm
[prun] Launch cmd = mpirun ./a.out input1.dat (family=openmpi4)
argv[1]: input1.dat
10000000 
myrank:0, #bloques: 
-47.12 54.89  0.28 
47.15 -0.46 54.86 
47.22  0.39 -54.85 
-47.20 -54.82 -0.44 

real	3m12.954s
user	3m9.175s
sys	0m0.284s
