[prun] Master compute host = n1113
[prun] Resource manager = slurm
[prun] Launch cmd = mpirun ./multiplicacion (family=openmpi3)
--------------------------------------------------------------------------
An ORTE daemon has unexpectedly failed after launch and before
communicating back to mpirun. This could be caused by a number
of factors, including an inability to create a connection back
to mpirun due to a lack of common network interfaces and/or no
route found between them. Please check network connectivity
(including firewalls and network routing requirements).
--------------------------------------------------------------------------
